Problem Set 2
…
There are six observations that deviate from the general pattern.

CountryLevelData %>% arrange(desc(gdpPercap))

## # A tibble: 1,704 x 6
##      country continent  year lifeExp     pop gdpPercap
##        <chr>     <chr> <int>   <dbl>   <int>     <dbl>
##  1    Kuwait      Asia  1957  58.033  212846 113523.13
##  2    Kuwait      Asia  1972  67.712  841934 109347.87
##  3    Kuwait      Asia  1952  55.565  160000 108382.35
##  4    Kuwait      Asia  1962  60.470  358266  95458.11
##  5    Kuwait      Asia  1967  64.624  575003  80894.88
##  6    Kuwait      Asia  1977  69.343 1140357  59265.48
##  7    Norway    Europe  2007  80.196 4627926  49357.19
##  8    Kuwait      Asia  2007  77.588 2505559  47306.99
##  9 Singapore      Asia  2007  79.972 4553009  47143.18
## 10    Norway    Europe  2002  79.050 4535591  44683.98
## # ... with 1,694 more rows
…
